{
  "project_info": {
    "project_number": "657747608044",
    "project_id": "travelwalla-dev",
    "storage_bucket": "travelwalla-dev.appspot.com"
  },
  "client": [
    {
      "client_info": {
        "mobilesdk_app_id": "1:657747608044:android:651ee6fd4d9c11912480c9",
        "android_client_info": {
          "package_name": "com.example.app_glogin"
        }
      },
      "oauth_client": [
        {
          "client_id": "657747608044-09jc8lm1ovms9ukcqb7l88nneg30j42o.apps.googleusercontent.com",
          "client_type": 1,
          "android_info": {
            "package_name": "com.example.app_glogin",
            "certificate_hash": "ffd7166a20e80890698dcb1423aff003ce7c4952"
          }
        }
      ],
      "api_key": [
        {
          "current_key": "AIzaSyAUps71VQERFag54kNNCid7sy3abqCFoXY"
        }
      ],
      "services": {
        "appinvite_service": {
          "other_platform_oauth_client": [
            {
              "client_id": "657747608044-ipa4aludbc7im5b2k42vq1gkl1p2pbmq.apps.googleusercontent.com",
              "client_type": 3
            },
            {
              "client_id": "657747608044-52alp4a377gajvttnhp9ichhng125lp3.apps.googleusercontent.com",
              "client_type": 2,
              "ios_info": {
                "bundle_id": "com.example.travelwallaMobile"
              }
            }
          ]
        }
      }
    },
    {
      "client_info": {
        "mobilesdk_app_id": "1:657747608044:android:6ba43308571f6e322480c9",
        "android_client_info": {
          "package_name": "com.travelwalla.mobile"
        }
      },
      "oauth_client": [
        {
          "client_id": "657747608044-88krikusq5pu1op0of57ii87f9n5rn42.apps.googleusercontent.com",
          "client_type": 1,
          "android_info": {
            "package_name": "com.travelwalla.mobile",
            "certificate_hash": "3b2befbf22551cbcbde627f03186dd64192124f4"
          }
        }
      ],
      "api_key": [
        {
          "current_key": "AIzaSyAUps71VQERFag54kNNCid7sy3abqCFoXY"
        }
      ],
      "services": {
        "appinvite_service": {
          "other_platform_oauth_client": [
            {
              "client_id": "657747608044-ipa4aludbc7im5b2k42vq1gkl1p2pbmq.apps.googleusercontent.com",
              "client_type": 3
            },
            {
              "client_id": "657747608044-52alp4a377gajvttnhp9ichhng125lp3.apps.googleusercontent.com",
              "client_type": 2,
              "ios_info": {
                "bundle_id": "com.example.travelwallaMobile"
              }
            }
          ]
        }
      }
    }
  ],
  "configuration_version": "1"
}